{
  "main": {
    "enablePreview": true,
    "lockPreview": false,
    "swapModes": false,
    "alwaysOn": true,
    "tooltipType": "MOD",
    "compactPreviewTagBehavior": "SEPARATE",
    "lootTableInfoType": "HIDE",
    "coloredPreview": true,
    "defaultMaxRowSize": 9
  }
}