{
  "enableExtraMaterials": true,
  "enableTaterHammer": false,
  "enableFull3x3": false,
  "fullBlockHitbox": false,
  "alwaysShowSingleBlockHitbox": false,
  "showSingleBlockWhenSneaking": true,
  "breakSingleBlockWhenSneaking": true,
  "durabilityModifier": 5
}